%YAML 1.1
%TAG !u! tag:unity3d.com,2011:
--- !u!114 &11400000
MonoBehaviour:
  m_ObjectHideFlags: 0
  m_CorrespondingSourceObject: {fileID: 0}
  m_PrefabInstance: {fileID: 0}
  m_PrefabAsset: {fileID: 0}
  m_GameObject: {fileID: 0}
  m_Enabled: 1
  m_EditorHideFlags: 0
  m_Script: {fileID: 11500000, guid: 6759a37298320924d923c2e55a38bfe2, type: 3}
  m_Name: bomb_tile
  m_EditorClassIdentifier: 
  sprite: {fileID: -7995846982363831464, guid: 47fc466fb4d01d948ae3682174abc367, type: 3}
  spriteOnSelection: {fileID: -4520992538454248240, guid: 236e558000280d8428fb3b78231e1b9d,
    type: 3}
  soundOnPop: {fileID: 8300000, guid: 77fd07e7fad8f7342ada88681cbb4a69, type: 3}
  soundOnShake: {fileID: 8300000, guid: b53d3c4095e212e4585878a4bb21f94d, type: 3}
  soundOnSelect: {fileID: 8300000, guid: fb0fe2e45af07eb4dbbad8934915d6c5, type: 3}
  amount: 0
  seed: 100
